…
    ## Rows: 63 Columns: 3
    ## ── Column specification ────────────────────────────────────────────────────────
    ## Delimiter: ","
    ## chr (1): name
    ## dbl (2): house, age
    ## 
    ## ℹ Use `spec()` to retrieve the full column specification for this data.
    ## ℹ Specify the column types or set `show_col_types = FALSE` to quiet this message.

``` r
df_sample_seq 
```

    ## # A tibble: 63 × 3
    ##    house   age name             
    ##    <dbl> <dbl> <chr>            
    ##  1     1    58 Arvid Thorn      
    ##  2     1    55 Benjamin Connolly
    ##  3     2    46 Remy Tiwari      
    ##  4     2    44 Sophia Solberg   
    ##  5     2    14 Illona Solberg   
    ##  6     2    12 William Tiwari   
    ##  7     2    10 Hans Solberg     
    ##  8     3    24 Kaya Carlsen     
    ##  9     3    23 Julian Eklund    
    ## 10     3     4 Katharina Carlsen
    ## # ℹ 53 more rows
…
``` r
## TASK: Compute the prevalence and sort
df_q3 <- 
  df_sample_seq %>% 
  mutate(last_name = word(name, -1)) %>%  
  count(last_name, name = "n") %>%  
  mutate(p = n / sum(n)) %>%  
  arrange(desc(p))  

df_q3
```

    ## # A tibble: 28 × 3
    ##    last_name     n      p
    ##    <chr>     <int>  <dbl>
    ##  1 Sorensen      8 0.127 
    ##  2 Lund          6 0.0952
    ##  3 Solberg       5 0.0794
    ##  4 Eklund        4 0.0635
    ##  5 Blomgren      3 0.0476
    ##  6 Carlsen       3 0.0476
    ##  7 Jansen        3 0.0476
    ##  8 Morris        3 0.0476
    ##  9 Banerjee      2 0.0317
    ## 10 Chunduri      2 0.0317
    ## # ℹ 18 more rows
…
Run the code below to find the prevalence of the most common *last name*
in Helvig using the sample `df_sample_random`. Answer the questions
below.

``` r
# NOTE: No need to edit; run and answer the questions below
df_sample_random %>% 
  mutate(last = str_extract(name, "\\w+$")) %>% 
  count(last) %>% 
  arrange(desc(n)) %>% 
  mutate(p = n / sum(n))
```

    ## # A tibble: 26 × 3
    ##    last         n      p
    ##    <chr>    <int>  <dbl>
    ##  1 Carlsen     10 0.169 
    ##  2 Solberg      6 0.102 
    ##  3 Eklund       5 0.0847
    ##  4 Edwards      4 0.0678
    ##  5 Sorensen     4 0.0678
    ##  6 Thorn        4 0.0678
    ##  7 Bager        2 0.0339
    ##  8 Banerjee     2 0.0339
    ##  9 Blomgren     2 0.0339
    ## 10 Connolly     2 0.0339
    ## # ℹ 16 more rows
…
